<?xml version="1.0" encoding="utf-8"?>
<!-- Generator: Adobe Illustrator 21.1.0, SVG Export Plug-In . SVG Version: 6.00 Build 0)  -->
<svg version="1.1" id="Layer_1" xmlns="http://www.w3.org/2000/svg" xmlns:xlink="http://www.w3.org/1999/xlink" x="0px" y="0px"
	 viewBox="0 0 100 100" style="enable-background:new 0 0 100 100;" xml:space="preserve">
<style type="text/css">
	.st0{fill:none;stroke:#000000;stroke-width:4;stroke-linecap:round;stroke-miterlimit:10;}
</style>
<g>
	<g>
		<g>
			<g>
				<circle class="st0" cx="53.9" cy="12.8" r="7.9"/>
				<polyline class="st0" points="44.1,32.5 28.4,36.5 16.6,48.2 10.6,42.3 24.4,28.5 46,22.7 				"/>
				<polyline class="st0" points="46,62 61.8,66 73.6,85.5 81.4,81.7 71.5,60 52,50.1 55.8,36.5 73.6,34.4 87.4,20.8 81.4,14.8 
					69.6,26.6 55.8,26.6 				"/>
				<polyline class="st0" points="48,58 42.2,77.7 20.5,95.3 14.6,89.4 30.3,73.7 36.2,56.1 38.2,34 				"/>
			</g>
		</g>
	</g>
</g>
</svg>
