<?xml version="1.0" encoding="utf-8"?>
<!-- Generator: Adobe Illustrator 21.1.0, SVG Export Plug-In . SVG Version: 6.00 Build 0)  -->
<svg version="1.0" id="Layer_1" xmlns="http://www.w3.org/2000/svg" xmlns:xlink="http://www.w3.org/1999/xlink" x="0px" y="0px"
	 viewBox="0 0 100 100" style="enable-background:new 0 0 100 100;" xml:space="preserve">
<style type="text/css">
	.st0{fill:none;stroke:#000000;stroke-width:4;stroke-linecap:round;stroke-miterlimit:10;}
</style>
<g>
	<g>
		<g>
			<g>
				<path class="st0" d="M55.1,40.2l2.9-2.9c0,0-2.9-4.3,1.4-8.6C60.8,27.2,78.1,10,78.1,10"/>
				<polyline class="st0" points="45,61.7 17.7,89 14.9,89 12,86.1 12,83.3 35,60.3 				"/>
				<path class="st0" d="M91,22.9c0,0-15.8,15.8-18.7,18.7C68,45.9,63.7,43,63.7,43l-2.9,2.9"/>
				<line class="st0" x1="63.7" y1="33" x2="82.4" y2="14.3"/>
				<line class="st0" x1="68" y1="37.3" x2="86.7" y2="18.6"/>
			</g>
			<path class="st0" d="M89.6,86.1v-2.9L17.7,11.4c0,0-5.7,4.3-5.7,11.5c0,4.3,0,5.7,7.2,12.9S39.3,56,39.3,56h11.5l33,33h2.9
				L89.6,86.1z"/>
		</g>
	</g>
</g>
</svg>
